<?xml version="1.0" encoding="UTF-8"?>
<svg version="1.1" viewBox="0 0 48 64" xmlns="http://www.w3.org/2000/svg">
 <g fill="#dcdcdc">
  <path transform="matrix(.87586 .44999 -.44999 .87586 12.689 -7.9749)" d="m36.745 38.063-13.497-6.4471-11.593 9.4519 1.9607-14.829-12.572-8.105 14.709-2.7176 3.8234-14.461 7.13 13.149 14.935-0.83248-10.302 10.844z" stroke-width="4.4008"/>
  <path transform="matrix(.78172 .86695 -.86695 .78172 -2.8195 -16.977)" d="m59.066 36.547-6.8623-3.2778-5.8942 4.8056 0.99686-7.5393-6.3918-4.1207 7.4784-1.3817 1.9439-7.3523 3.625 6.6854 7.5932-0.42325-5.238 5.5135z" stroke-width="2.2374"/>
  <path transform="matrix(.94509 -.27647 .27647 .94509 -16.528 14.776)" d="m52.243 53.776-6.1542-2.9396-5.2861 4.3097 0.89401-6.7614-5.7323-3.6956 6.7068-1.2391 1.7433-6.5937 3.251 5.9956 6.8097-0.37958-4.6975 4.9446z" stroke-width="2.0066"/>
  <path transform="rotate(20.718 67.274 157.03)" d="m40.085 60.848-2.9606-1.4142-2.5429 2.0733 0.43007-3.2527-2.7576-1.7778 3.2264-0.59611 0.83864-3.172 1.5639 2.8843 3.2759-0.1826-2.2598 2.3787z" stroke-width=".9653"/>
 </g>
</svg>
