<?xml version="1.0" encoding="UTF-8" standalone="no"?>
<svg
   xmlns:dc="http://purl.org/dc/elements/1.1/"
   xmlns:cc="http://creativecommons.org/ns#"
   xmlns:rdf="http://www.w3.org/1999/02/22-rdf-syntax-ns#"
   xmlns:svg="http://www.w3.org/2000/svg"
   xmlns="http://www.w3.org/2000/svg"
   xmlns:sodipodi="http://sodipodi.sourceforge.net/DTD/sodipodi-0.dtd"
   xmlns:inkscape="http://www.inkscape.org/namespaces/inkscape"
   version="1.1"
   viewBox="0 0 64 64"
   id="svg981"
   sodipodi:docname="rune-F.svg"
   inkscape:version="1.0.1 (3bc2e813f5, 2020-09-07)">
  <metadata
     id="metadata987">
    <rdf:RDF>
      <cc:Work
         rdf:about="">
        <dc:format>image/svg+xml</dc:format>
        <dc:type
           rdf:resource="http://purl.org/dc/dcmitype/StillImage" />
      </cc:Work>
    </rdf:RDF>
  </metadata>
  <defs
     id="defs985" />
  <sodipodi:namedview
     pagecolor="#ffffff"
     bordercolor="#666666"
     borderopacity="1"
     objecttolerance="10"
     gridtolerance="10"
     guidetolerance="10"
     inkscape:pageopacity="0"
     inkscape:pageshadow="2"
     inkscape:window-width="1920"
     inkscape:window-height="1056"
     id="namedview983"
     showgrid="false"
     inkscape:zoom="13"
     inkscape:cx="19"
     inkscape:cy="32"
     inkscape:window-x="0"
     inkscape:window-y="0"
     inkscape:window-maximized="0"
     inkscape:current-layer="svg981">
    <inkscape:grid
       type="xygrid"
       id="grid1550" />
  </sodipodi:namedview>
  <g
     transform="matrix(1.3533859,0,0,1.0968869,-257.86091,-250.71582)"
     id="g979">
    <path
       d="m 208.06,285.76 c -3.9923,-7.092 -4.6152,-9.8749 -3.2595,-16.376 1.1584,-5.5553 7.607,-8.7318 8.5451,-17.347 0.669,8.5509 3.8593,12.794 6.7758,15.958 2.9166,3.1645 5.9173,10.7 -0.46435,17.852 16.555,-3.5914 21.113,-33.955 13.462,-44.138 -6.6623,14.007 -19.921,-5.7918 -13.321,-12.227 -17.873,0.22433 -28.04278,16.37765 -28.15272,26.31805 -0.10993,9.9404 0.41192,20.96895 16.41372,29.95895 z"
       fill="#e78437"
       id="path977"
       sodipodi:nodetypes="ccccccczcc" />
  </g>
</svg>
