<?xml version="1.0" encoding="UTF-8" standalone="no"?>
<svg
   xmlns:dc="http://purl.org/dc/elements/1.1/"
   xmlns:cc="http://creativecommons.org/ns#"
   xmlns:rdf="http://www.w3.org/1999/02/22-rdf-syntax-ns#"
   xmlns:svg="http://www.w3.org/2000/svg"
   xmlns="http://www.w3.org/2000/svg"
   xmlns:xlink="http://www.w3.org/1999/xlink"
   xmlns:sodipodi="http://sodipodi.sourceforge.net/DTD/sodipodi-0.dtd"
   xmlns:inkscape="http://www.inkscape.org/namespaces/inkscape"
   version="1.1"
   viewBox="0 0 64 64"
   id="svg981"
   sodipodi:docname="rune-W.svg"
   inkscape:version="1.0.1 (3bc2e813f5, 2020-09-07)">
  <metadata
     id="metadata987">
    <rdf:RDF>
      <cc:Work
         rdf:about="">
        <dc:format>image/svg+xml</dc:format>
        <dc:type
           rdf:resource="http://purl.org/dc/dcmitype/StillImage" />
        <dc:title></dc:title>
      </cc:Work>
    </rdf:RDF>
  </metadata>
  <defs
     id="defs985">
    <linearGradient
       inkscape:collect="always"
       id="linearGradient1450">
      <stop
         style="stop-color:#ff7d26;stop-opacity:1"
         offset="0"
         id="stop1446" />
      <stop
         style="stop-color:#f6ff55;stop-opacity:1"
         offset="0.1875"
         id="stop1454" />
      <stop
         style="stop-color:#68ff39;stop-opacity:1"
         offset="0.3125"
         id="stop1456" />
      <stop
         style="stop-color:#1dfbff;stop-opacity:1"
         offset="0.4570308"
         id="stop1462" />
      <stop
         style="stop-color:#4f76db;stop-opacity:1"
         offset="0.64583331"
         id="stop1460" />
      <stop
         style="stop-color:#e55ccf;stop-opacity:1"
         offset="0.83333331"
         id="stop1458" />
      <stop
         style="stop-color:#ff1f1f;stop-opacity:1"
         offset="1"
         id="stop1448" />
    </linearGradient>
    <inkscape:path-effect
       effect="copy_rotate"
       starting_point="35.11,47.5"
       origin="21,48"
       id="path-effect1807"
       is_visible="true"
       lpeversion="1"
       method="normal"
       num_copies="6"
       starting_angle="2.0294761"
       rotation_angle="60"
       gap="-0.01"
       copies_to_360="true"
       mirror_copies="false"
       split_items="false" />
    <inkscape:path-effect
       effect="copy_rotate"
       starting_point="0,0"
       origin="7.2216289,38.473719"
       id="path-effect1802"
       is_visible="true"
       lpeversion="1"
       method="normal"
       num_copies="5"
       starting_angle="0"
       rotation_angle="60"
       gap="-0.01"
       copies_to_360="true"
       mirror_copies="false"
       split_items="false" />
    <inkscape:path-effect
       effect="mirror_symmetry"
       start_point="63.091576,13.947441"
       end_point="63.091576,62.999998"
       center_point="63.091576,38.473719"
       id="path-effect1800"
       is_visible="true"
       lpeversion="1"
       mode="free"
       discard_orig_path="false"
       fuse_paths="false"
       oposite_fuse="false"
       split_items="false" />
    <inkscape:path-effect
       effect="powermask"
       id="path-effect1662"
       is_visible="true"
       lpeversion="1"
       uri="#mask-powermask-path-effect1662"
       invert="false"
       hide_mask="false"
       background="true"
       background_color="#ffffffff" />
    <mask
       maskUnits="userSpaceOnUse"
       id="mask-powermask-path-effect1662">
      <path
         id="mask-powermask-path-effect1662_box"
         style="fill:#ffffff;fill-opacity:1"
         d="M 8,45 H 59 V 58 H 8 Z" />
      <path
         id="path1660"
         style="fill:none;fill-opacity:1;stroke:#8f8f8f;stroke-width:6.2;stroke-linejoin:bevel;stroke-miterlimit:4;stroke-dasharray:none"
         inkscape:transform-center-y="4"
         d="M 11.214844,4 27.380859,32 11.214844,60 H 52.785156 L 36.619141,32 52.785156,4 Z" />
    </mask>
    <filter
       id="mask-powermask-path-effect1662_inverse"
       inkscape:label="filtermask-powermask-path-effect1662"
       style="color-interpolation-filters:sRGB"
       height="100"
       width="100"
       x="-50"
       y="-50">
      <feColorMatrix
         id="mask-powermask-path-effect1662_primitive1"
         values="1"
         type="saturate"
         result="fbSourceGraphic" />
      <feColorMatrix
         id="mask-powermask-path-effect1662_primitive2"
         values="-1 0 0 0 1 0 -1 0 0 1 0 0 -1 0 1 0 0 0 1 0 "
         in="fbSourceGraphic" />
    </filter>
    <linearGradient
       inkscape:collect="always"
       xlink:href="#linearGradient1450"
       id="linearGradient1452"
       x1="8"
       y1="8"
       x2="56"
       y2="56"
       gradientUnits="userSpaceOnUse" />
  </defs>
  <sodipodi:namedview
     pagecolor="#ffffff"
     bordercolor="#666666"
     borderopacity="1"
     objecttolerance="10"
     gridtolerance="10"
     guidetolerance="10"
     inkscape:pageopacity="0"
     inkscape:pageshadow="2"
     inkscape:window-width="1920"
     inkscape:window-height="1056"
     id="namedview983"
     showgrid="true"
     inkscape:zoom="9.4244076"
     inkscape:cx="30.094136"
     inkscape:cy="29.376957"
     inkscape:window-x="0"
     inkscape:window-y="0"
     inkscape:window-maximized="0"
     inkscape:current-layer="svg981"
     inkscape:snap-grids="true"
     inkscape:object-paths="true"
     inkscape:snap-global="true"
     inkscape:document-rotation="0">
    <inkscape:grid
       type="xygrid"
       id="grid1550" />
  </sodipodi:namedview>
  <path
     id="path2618"
     style="mix-blend-mode:multiply;fill:url(#linearGradient1452);fill-opacity:1;stroke:none;stroke-width:4;stroke-linejoin:bevel;stroke-miterlimit:4;stroke-dasharray:none;stroke-opacity:1"
     d="M 31.998047,1 C 14.877982,1.0010786 0.99999997,14.879935 1,32 1,49.120827 14.879173,63 32,63 49.120827,63 63,49.120827 63,32 63,14.879173 49.120827,1 32,1 Z"
     sodipodi:nodetypes="ssssss" />
  <g
     aria-label="?"
     id="text2614"
     style="font-style:normal;font-variant:normal;font-weight:900;font-stretch:normal;font-size:62.3026px;line-height:1.25;font-family:'Source Code Pro';-inkscape-font-specification:'Source Code Pro, Heavy';font-variant-ligatures:normal;font-variant-caps:normal;font-variant-numeric:normal;font-variant-east-asian:normal;letter-spacing:0px;word-spacing:0px;fill:#000000;fill-opacity:1;stroke:none;stroke-width:0.934536" />
</svg>
